Energy_Monitor/simulation/qsim/LogicalStep_Lab3.msim.vcd
$comment
	File created using the following command:
		vcd file LogicalStep_Lab3.msim.vcd -direction
$end
$date
	Tue Mar 07 17:41:48 2023
$end
$version
	ModelSim Version 10.4b
$end
$timescale
	1ps
$end

$scope module LogicalStep_Lab3_top_vlg_vec_tst $end
$var reg 1 ! clkin_50 $end
$var reg 4 " pb_n [3:0] $end
$var reg 8 # sw [7:0] $end
$var wire 1 $ leds [7] $end
$var wire 1 % leds [6] $end
$var wire 1 & leds [5] $end
$var wire 1 ' leds [4] $end
$var wire 1 ( leds [3] $end
$var wire 1 ) leds [2] $end
$var wire 1 * leds [1] $end
$var wire 1 + leds [0] $end
$var wire 1 , seg7_char1 $end
$var wire 1 - seg7_char2 $end
$var wire 1 . seg7_data [6] $end
$var wire 1 / seg7_data [5] $end
$var wire 1 0 seg7_data [4] $end
$var wire 1 1 seg7_data [3] $end
$var wire 1 2 seg7_data [2] $end
$var wire 1 3 seg7_data [1] $end
$var wire 1 4 seg7_data [0] $end

$scope module i1 $end
$var wire 1 5 gnd $end
$var wire 1 6 vcc $end
$var wire 1 7 unknown $end
$var tri1 1 8 devclrn $end
$var tri1 1 9 devpor $end
$var tri1 1 : devoe $end
$var wire 1 ; pb_n[1]~input_o $end
$var wire 1 < pb_n[2]~input_o $end
$var wire 1 = pb_n[3]~input_o $end
$var wire 1 > seg7_data[1]~output_o $end
$var wire 1 ? seg7_data[5]~output_o $end
$var wire 1 @ seg7_data[6]~output_o $end
$var wire 1 A leds[0]~output_o $end
$var wire 1 B leds[1]~output_o $end
$var wire 1 C leds[2]~output_o $end
$var wire 1 D leds[3]~output_o $end
$var wire 1 E leds[4]~output_o $end
$var wire 1 F leds[5]~output_o $end
$var wire 1 G leds[6]~output_o $end
$var wire 1 H leds[7]~output_o $end
$var wire 1 I seg7_data[0]~output_o $end
$var wire 1 J seg7_data[2]~output_o $end
$var wire 1 K seg7_data[3]~output_o $end
$var wire 1 L seg7_data[4]~output_o $end
$var wire 1 M seg7_char1~output_o $end
$var wire 1 N seg7_char2~output_o $end
$var wire 1 O sw[0]~input_o $end
$var wire 1 P sw[1]~input_o $end
$var wire 1 Q sw[2]~input_o $end
$var wire 1 R sw[3]~input_o $end
$var wire 1 S inst1|Mux5~0_combout $end
$var wire 1 T sw[4]~input_o $end
$var wire 1 U sw[5]~input_o $end
$var wire 1 V sw[6]~input_o $end
$var wire 1 W sw[7]~input_o $end
$var wire 1 X inst2|Mux5~0_combout $end
$var wire 1 Y clkin_50~input_o $end
$var wire 1 Z inst3|clk_proc:COUNT[0]~0_combout $end
$var wire 1 [ inst3|clk_proc:COUNT[0]~q $end
$var wire 1 \ inst3|clk_proc:COUNT[1]~1_combout $end
$var wire 1 ] inst3|clk_proc:COUNT[1]~q $end
$var wire 1 ^ inst3|clk_proc:COUNT[1]~2 $end
$var wire 1 _ inst3|clk_proc:COUNT[2]~1_combout $end
$var wire 1 ` inst3|clk_proc:COUNT[2]~q $end
$var wire 1 a inst3|clk_proc:COUNT[2]~2 $end
$var wire 1 b inst3|clk_proc:COUNT[3]~1_combout $end
$var wire 1 c inst3|clk_proc:COUNT[3]~q $end
$var wire 1 d inst3|clk_proc:COUNT[3]~2 $end
$var wire 1 e inst3|clk_proc:COUNT[4]~1_combout $end
$var wire 1 f inst3|clk_proc:COUNT[4]~q $end
$var wire 1 g inst3|clk_proc:COUNT[4]~2 $end
$var wire 1 h inst3|clk_proc:COUNT[5]~1_combout $end
$var wire 1 i inst3|clk_proc:COUNT[5]~q $end
$var wire 1 j inst3|clk_proc:COUNT[5]~2 $end
$var wire 1 k inst3|clk_proc:COUNT[6]~1_combout $end
$var wire 1 l inst3|clk_proc:COUNT[6]~q $end
$var wire 1 m inst3|clk_proc:COUNT[6]~2 $end
$var wire 1 n inst3|clk_proc:COUNT[7]~1_combout $end
$var wire 1 o inst3|clk_proc:COUNT[7]~q $end
$var wire 1 p inst3|clk_proc:COUNT[7]~2 $end
$var wire 1 q inst3|clk_proc:COUNT[8]~1_combout $end
$var wire 1 r inst3|clk_proc:COUNT[8]~q $end
$var wire 1 s inst3|clk_proc:COUNT[8]~2 $end
$var wire 1 t inst3|clk_proc:COUNT[9]~1_combout $end
$var wire 1 u inst3|clk_proc:COUNT[9]~q $end
$var wire 1 v inst3|clk_proc:COUNT[9]~2 $end
$var wire 1 w inst3|clk_proc:COUNT[10]~1_combout $end
$var wire 1 x inst3|clk_proc:COUNT[10]~q $end
$var wire 1 y inst3|DOUT_TEMP[1]~0_combout $end
$var wire 1 z inst1|Mux1~0_combout $end
$var wire 1 { inst2|Mux1~0_combout $end
$var wire 1 | inst3|DOUT_TEMP[5]~1_combout $end
$var wire 1 } inst1|Mux0~0_combout $end
$var wire 1 ~ inst2|Mux0~0_combout $end
$var wire 1 !! inst3|DOUT_TEMP[6]~2_combout $end
$var wire 1 "! Counter|ud_bin_counter[0]~8_combout $end
$var wire 1 #! pb_n[0]~input_o $end
$var wire 1 $! Counter|ud_bin_counter[0]~10_combout $end
$var wire 1 %! Counter|ud_bin_counter[0]~9 $end
$var wire 1 &! Counter|ud_bin_counter[1]~11_combout $end
$var wire 1 '! Counter|ud_bin_counter[1]~12 $end
$var wire 1 (! Counter|ud_bin_counter[2]~13_combout $end
$var wire 1 )! Counter|ud_bin_counter[2]~14 $end
$var wire 1 *! Counter|ud_bin_counter[3]~15_combout $end
$var wire 1 +! Counter|ud_bin_counter[3]~16 $end
$var wire 1 ,! Counter|ud_bin_counter[4]~17_combout $end
$var wire 1 -! Counter|ud_bin_counter[4]~18 $end
$var wire 1 .! Counter|ud_bin_counter[5]~19_combout $end
$var wire 1 /! Counter|ud_bin_counter[5]~20 $end
$var wire 1 0! Counter|ud_bin_counter[6]~21_combout $end
$var wire 1 1! Counter|ud_bin_counter[6]~22 $end
$var wire 1 2! Counter|ud_bin_counter[7]~23_combout $end
$var wire 1 3! inst1|Mux6~0_combout $end
$var wire 1 4! inst2|Mux6~0_combout $end
$var wire 1 5! inst3|DOUT[0]~0_combout $end
$var wire 1 6! inst1|Mux4~0_combout $end
$var wire 1 7! inst2|Mux4~0_combout $end
$var wire 1 8! inst3|DOUT[2]~2_combout $end
$var wire 1 9! inst1|Mux3~0_combout $end
$var wire 1 :! inst2|Mux3~0_combout $end
$var wire 1 ;! inst3|DOUT[3]~3_combout $end
$var wire 1 <! inst1|Mux2~0_combout $end
$var wire 1 =! inst2|Mux2~0_combout $end
$var wire 1 >! inst3|DOUT[4]~4_combout $end
$var wire 1 ?! Counter|ud_bin_counter [7] $end
$var wire 1 @! Counter|ud_bin_counter [6] $end
$var wire 1 A! Counter|ud_bin_counter [5] $end
$var wire 1 B! Counter|ud_bin_counter [4] $end
$var wire 1 C! Counter|ud_bin_counter [3] $end
$var wire 1 D! Counter|ud_bin_counter [2] $end
$var wire 1 E! Counter|ud_bin_counter [1] $end
$var wire 1 F! Counter|ud_bin_counter [0] $end
$upscope $end
$upscope $end
$enddefinitions $end
#0
$dumpvars
0!
bx0 "
bx11 #
0+
0*
0)
0(
0'
0&
0%
0$
1,
0-
x4
z3
x2
x1
x0
z/
z.
05
16
x7
18
19
1:
x;
x<
x=
z>
z?
z@
0A
0B
0C
0D
0E
0F
0G
0H
xI
xJ
xK
xL
1M
0N
1O
1P
xQ
xR
xS
xT
xU
xV
xW
xX
0Y
1Z
0[
0\
0]
0^
0_
0`
1a
0b
0c
0d
0e
0f
1g
0h
0i
0j
0k
0l
1m
0n
0o
0p
0q
0r
1s
0t
0u
0v
0w
0x
xy
xz
x{
x|
x}
x~
x!!
1"!
0#!
1$!
0%!
0&!
1'!
0(!
0)!
0*!
1+!
0,!
0-!
0.!
1/!
00!
01!
02!
x3!
x4!
x5!
x6!
x7!
x8!
x9!
x:!
x;!
x<!
x=!
x>!
0F!
0E!
0D!
0C!
0B!
0A!
0@!
0?!
$end
#10000
1!
1Y
1[
1\
0Z
#20000
0!
0Y
#30000
1!
1Y
1]
0[
1Z
#40000
0!
0Y
#50000
1!
1Y
1[
1^
0\
0Z
1_
#60000
bx1 "
0!
1#!
0Y
#70000
1!
1Y
1`
0]
0[
1F!
1A
0a
0^
1%!
1+
0_
1Z
0"!
1a
1b
1_
1&!
0b
#80000
0!
0Y
#90000
1!
1Y
1[
1E!
0F!
0A
1B
0'!
0%!
1*
0+
1\
0Z
0&!
1"!
1'!
1(!
1&!
0(!
#100000
0!
0Y
#110000
1!
1Y
1]
0[
1F!
1A
1%!
1+
1Z
0"!
0'!
0&!
1(!
#120000
0!
0Y
#130000
1!
1Y
1[
1D!
0E!
0F!
0A
0B
1C
1^
1)!
1'!
0%!
1)
0*
0+
0\
0Z
0(!
1&!
1"!
0a
0)!
0_
1*!
1(!
0&!
1b
0*!
#140000
0!
0Y
#150000
1!
1Y
1c
0`
0]
0[
1F!
1A
1d
1a
0^
1%!
1+
0b
1_
1Z
0"!
0d
1e
1b
0_
1&!
0e
#160000
0!
0Y
#170000
1!
1Y
1[
1E!
0F!
0A
1B
0'!
0%!
1*
0+
1\
0Z
0&!
1"!
1)!
1'!
0(!
1&!
0)!
1*!
1(!
0*!
#180000
0!
0Y
#190000
1!
1Y
1]
0[
1F!
1A
1%!
1+
1Z
0"!
0'!
0&!
1)!
0(!
1*!
#200000
0!
0Y
#210000
1!
1Y
1[
1C!
0D!
0E!
0F!
0A
0B
0C
1D
1^
0+!
0)!
1'!
0%!
1(
0)
0*
0+
0\
0Z
0*!
1(!
1&!
1"!
1+!
1_
1,!
1*!
0(!
0&!
0,!
#220000
0!
0Y
#230000
1!
1Y
1`
0]
0[
1F!
1A
0a
0^
1%!
1+
0_
1Z
0"!
1d
1a
0b
1_
1&!
0d
1e
1b
0e
#240000
0!
0Y
#250000
1!
1Y
1[
1E!
0F!
0A
1B
0'!
0%!
1*
0+
1\
0Z
0&!
1"!
1'!
1(!
1&!
0(!
#260000
0!
0Y
#270000
1!
1Y
1]
0[
1F!
1A
1%!
1+
1Z
0"!
0'!
0&!
1(!
#280000
0!
0Y
#290000
1!
1Y
1[
1D!
0E!
0F!
0A
0B
1C
1^
1)!
1'!
0%!
1)
0*
0+
0\
0Z
0(!
1&!
1"!
0a
0+!
0)!
0_
0*!
1(!
0&!
1d
1+!
0b
1,!
1*!
1e
0,!
#300000
0!
0Y
#310000
1!
1Y
1f
0c
0`
0]
0[
1F!
1A
0g
0d
1a
0^
1%!
1+
0e
1b
1_
1Z
0"!
1g
1h
1e
0b
0_
1&!
0h
#320000
0!
0Y
#330000
1!
1Y
1[
1E!
0F!
0A
1B
0'!
0%!
1*
0+
1\
0Z
0&!
1"!
1)!
1'!
0(!
1&!
0+!
0)!
0*!
1(!
1+!
1,!
1*!
0,!
#340000
0!
0Y
#350000
1!
1Y
1]
0[
1F!
1A
1%!
1+
1Z
0"!
0'!
0&!
1)!
0(!
0+!
0*!
1,!
#360000
0!
0Y
#370000
1!
1Y
1[
1B!
0C!
0D!
0E!
0F!
0A
0B
0C
0D
1E
1^
1-!
1+!
0)!
1'!
0%!
1'
0(
0)
0*
0+
0\
0Z
0,!
1*!
1(!
1&!
1"!
0-!
1_
1.!
1,!
0*!
0(!
0&!
0.!
#380000
0!
0Y
#390000
1!
1Y
1`
0]
0[
1F!
1A
0a
0^
1%!
1+
0_
1Z
0"!
1a
1b
1_
1&!
0b
#400000
0!
0Y
#410000
1!
1Y
1[
1E!
0F!
0A
1B
0'!
0%!
1*
0+
1\
0Z
0&!
1"!
1'!
1(!
1&!
0(!
#420000
0!
0Y
#430000
1!
1Y
1]
0[
1F!
1A
1%!
1+
1Z
0"!
0'!
0&!
1(!
#440000
0!
0Y
#450000
1!
1Y
1[
1D!
0E!
0F!
0A
0B
1C
1^
1)!
1'!
0%!
1)
0*
0+
0\
0Z
0(!
1&!
1"!
0a
0)!
0_
1*!
1(!
0&!
1b
0*!
#460000
0!
0Y
#470000
1!
1Y
1c
0`
0]
0[
1F!
1A
1d
1a
0^
1%!
1+
0b
1_
1Z
0"!
0g
0d
0e
1b
0_
1&!
1g
1h
1e
0h
#480000
0!
0Y
#490000
1!
1Y
1[
1E!
0F!
0A
1B
0'!
0%!
1*
0+
1\
0Z
0&!
1"!
1)!
1'!
0(!
1&!
0)!
1*!
1(!
0*!
#500000
0!
0Y
#510000
1!
1Y
1]
0[
1F!
1A
1%!
1+
1Z
0"!
0'!
0&!
1)!
0(!
1*!
#520000
0!
0Y
#530000
1!
1Y
1[
1C!
0D!
0E!
0F!
0A
0B
0C
1D
1^
0+!
0)!
1'!
0%!
1(
0)
0*
0+
0\
0Z
0*!
1(!
1&!
1"!
1-!
1+!
1_
0,!
1*!
0(!
0&!
0-!
1.!
1,!
0.!
#540000
0!
0Y
#550000
1!
1Y
1`
0]
0[
1F!
1A
0a
0^
1%!
1+
0_
1Z
0"!
1d
1a
0b
1_
1&!
0g
0d
0e
1b
1g
1h
1e
0h
#560000
0!
0Y
#570000
1!
1Y
1[
1E!
0F!
0A
1B
0'!
0%!
1*
0+
1\
0Z
0&!
1"!
1'!
1(!
1&!
0(!
#580000
0!
0Y
#590000
1!
1Y
1]
0[
1F!
1A
1%!
1+
1Z
0"!
0'!
0&!
1(!
#600000
0!
0Y
#610000
1!
1Y
1[
1D!
0E!
0F!
0A
0B
1C
1^
1)!
1'!
0%!
1)
0*
0+
0\
0Z
0(!
1&!
1"!
0a
0+!
0)!
0_
0*!
1(!
0&!
1d
1-!
1+!
0b
0,!
1*!
0g
0-!
0e
1.!
1,!
1h
0.!
#620000
0!
0Y
#630000
1!
1Y
1i
0f
0c
0`
0]
0[
1F!
1A
1j
1g
0d
1a
0^
1%!
1+
0h
1e
1b
1_
1Z
0"!
0j
1k
1h
0e
0b
0_
1&!
0k
#640000
bx01 #
0!
0P
0Y
06!
1-!
0+!
1)!
0'!
12!
10!
1.!
0,!
0*!
0(!
0&!
0/!
0.!
1,!
1*!
1(!
11!
00!
02!
#650000
1!
1Y
1[
0F!
0A
0%!
0+
1\
0Z
1"!
1'!
1&!
0(!
#660000
0!
0Y
#670000
1!
1Y
1]
0[
0D!
1E!
1F!
1A
1B
0C
0)!
0'!
1%!
0)
1*
1+
1Z
1(!
0&!
0"!
1)!
0*!
0(!
1&!
1*!
#680000
0!
0Y
#690000
1!
1Y
1[
0F!
0A
1^
0%!
0+
0\
0Z
1"!
1_
0&!
#700000
0!
0Y
#710000
1!
1Y
1`
0]
0[
0E!
1F!
1A
0B
0a
0^
1'!
1%!
0*
1+
0_
1Z
1&!
0"!
1a
0)!
0'!
1b
1_
1(!
0&!
1)!
0b
0*!
0(!
1*!
#720000
0!
0Y
#730000
1!
1Y
1[
0F!
0A
0%!
0+
1\
0Z
1"!
1'!
1&!
0)!
1(!
0*!
#740000
0!
0Y
#750000
1!
1Y
1]
0[
0C!
1D!
1E!
1F!
1A
1B
1C
0D
1+!
1)!
0'!
1%!
0(
1)
1*
1+
1Z
1*!
0(!
0&!
0"!
0+!
0,!
0*!
1(!
1&!
1,!
#760000
0!
0Y
#770000
1!
1Y
1[
0F!
0A
1^
0%!
0+
0\
0Z
1"!
0a
0_
0&!
1b
#780000
0!
0Y
#790000
1!
1Y
1c
0`
0]
0[
0E!
1F!
1A
0B
1d
1a
0^
1'!
1%!
0*
1+
0b
1_
1Z
1&!
0"!
0d
0'!
1e
1b
0_
0(!
0&!
0e
1(!
#800000
0!
0Y
#810000
1!
1Y
1[
0F!
0A
0%!
0+
1\
0Z
1"!
1'!
1&!
0(!
#820000
0!
0Y
#830000
1!
1Y
1]
0[
0D!
1E!
1F!
1A
1B
0C
0)!
0'!
1%!
0)
1*
1+
1Z
1(!
0&!
0"!
1+!
1)!
1*!
0(!
1&!
0+!
0,!
0*!
1,!
#840000
0!
0Y
#850000
1!
1Y
1[
0F!
0A
1^
0%!
0+
0\
0Z
1"!
1_
0&!
#860000
0!
0Y
#870000
1!
1Y
1`
0]
0[
0E!
1F!
1A
0B
0a
0^
1'!
1%!
0*
1+
0_
1Z
1&!
0"!
1d
1a
0)!
0'!
0b
1_
1(!
0&!
0d
1+!
1)!
1e
1b
1*!
0(!
0+!
0e
0,!
0*!
1,!
#880000
0!
0Y
#890000
1!
1Y
1[
0F!
0A
0%!
0+
1\
0Z
1"!
1'!
1&!
0)!
1(!
1+!
1*!
0,!
#900000
0!
0Y
#910000
1!
1Y
1]
0[
0B!
1C!
1D!
1E!
1F!
1A
1B
1C
1D
0E
0-!
0+!
1)!
0'!
1%!
0'
1(
1)
1*
1+
1Z
1,!
0*!
0(!
0&!
0"!
1/!
1-!
1.!
0,!
1*!
1(!
1&!
01!
0/!
10!
0.!
11!
12!
00!
02!
#920000
0!
0Y
#930000
1!
1Y
1[
0F!
0A
1^
0%!
0+
0\
0Z
1"!
0a
0_
0&!
1d
0b
1e
#940000
0!
0Y
#950000
1!
1Y
1f
0c
0`
0]
0[
0E!
1F!
1A
0B
0g
0d
1a
0^
1'!
1%!
0*
1+
0e
1b
1_
1Z
1&!
0"!
1j
1g
0'!
0h
1e
0b
0_
0(!
0&!
0j
1k
1h
1(!
0k
#960000
0!
0Y
#970000
1!
1Y
1[
0F!
0A
0%!
0+
1\
0Z
1"!
1'!
1&!
0(!
#980000
0!
0Y
#990000
1!
1Y
1]
0[
0D!
1E!
1F!
1A
1B
0C
0)!
0'!
1%!
0)
1*
1+
1Z
1(!
0&!
0"!
1)!
0*!
0(!
1&!
1*!
